{"items":[{"id":"EA89F56409A04B87B5CDA7FA64D605C2","type":null,"created_at":"2025-12-31T16:23:29Z","deleted_at":null,"project_id":null,"series_id":null,"storage_path":null,"mime_type":null,"width":null,"height":null,"duration_ms":null}],"page":{"limit":1,"offset":0,"total":47,"has_more":true}}