{"items":[{"id":"5FBA8D5F46254AF9819D359F83726558","type":null,"created_at":"2025-12-30T06:08:55Z","deleted_at":null,"project_id":null,"series_id":null,"storage_path":null,"mime_type":null,"width":null,"height":null,"duration_ms":null},{"id":"E8307BDFB7544A658CFC3BF9B5A71516","type":null,"created_at":"2025-12-30T06:00:34Z","deleted_at":null,"project_id":null,"series_id":null,"storage_path":null,"mime_type":null,"width":null,"height":null,"duration_ms":null},{"id":"AACADF2B93B344EE93AF656AB5EBE57D","type":null,"created_at":"2025-12-30T05:37:35Z","deleted_at":null,"project_id":null,"series_id":null,"storage_path":null,"mime_type":null,"width":null,"height":null,"duration_ms":null},{"id":"1E455C8112CA4518A47FB682AC0D937D","type":null,"created_at":"2025-12-30T05:29:41Z","deleted_at":null,"project_id":null,"series_id":null,"storage_path":null,"mime_type":null,"width":null,"height":null,"duration_ms":null},{"id":"BAA2035553E9478B87C3723940813C52","type":null,"created_at":"2025-12-30T04:07:30Z","deleted_at":null,"project_id":null,"series_id":null,"storage_path":null,"mime_type":null,"width":null,"height":null,"duration_ms":null}],"page":{"limit":5,"offset":0,"total":6,"has_more":true}}